<svg width="23" height="19" viewBox="0 0 23 19" fill="none" xmlns="http://www.w3.org/2000/svg">
<path id="telegramm_red" fill-rule="evenodd" clip-rule="evenodd" d="M12.3066 14.5034C11.4735 15.3248 10.6494 16.1317 9.83243 16.946C9.54678 17.2306 9.22545 17.3878 8.81573 17.3655C8.53668 17.3503 8.38004 17.2248 8.29453 16.9557C7.66929 14.988 7.03384 13.0236 6.41143 11.055C6.35078 10.8633 6.25945 10.7712 6.06924 10.7123C4.59497 10.2555 3.12365 9.78892 1.65422 9.31656C1.43665 9.24661 1.21636 9.15671 1.02759 9.0298C0.699049 8.809 0.652162 8.45792 0.952185 8.20372C1.2294 7.96881 1.55806 7.77213 1.89476 7.63718C3.7576 6.89077 5.62994 6.16854 7.49889 5.43771C11.9947 3.67967 16.4906 1.9218 20.9861 0.16292C21.8479 -0.174271 22.5176 0.293366 22.4368 1.23494C22.3837 1.85562 22.2241 2.46821 22.0962 3.08097C21.0999 7.85039 20.0998 12.619 19.101 17.3878C19.099 17.397 19.0984 17.4064 19.0964 17.4156C18.8521 18.5065 18.0698 18.8048 17.1778 18.1398C15.6293 16.9853 14.0846 15.8255 12.5381 14.6683C12.465 14.6136 12.3894 14.5622 12.3066 14.5034ZM8.88505 16.0054C8.90914 15.8934 8.92584 15.8417 8.93072 15.789C9.02899 14.7165 9.1317 13.6443 9.2187 12.5709C9.23807 12.3326 9.30821 12.1567 9.4901 11.9913C11.8368 9.85708 14.1762 7.71468 16.5175 5.57441C17.1835 4.96559 17.8523 4.3598 18.5118 3.7439C18.581 3.67924 18.5961 3.55498 18.6363 3.45838C18.5344 3.42914 18.4202 3.35503 18.3332 3.3796C18.1322 3.43639 17.9296 3.51742 17.7533 3.62976C14.2722 5.84812 10.7957 8.07363 7.31452 10.2918C7.1374 10.4046 7.08685 10.4975 7.15788 10.7137C7.7091 12.3913 8.24433 14.0744 8.78534 15.7554C8.80654 15.8213 8.83645 15.8843 8.88505 16.0054Z" fill="#5294EE" fill-opacity="0.6"/>
</svg>
