<svg width="21" height="21" viewBox="0 0 21 21" fill="none" xmlns="http://www.w3.org/2000/svg">
<path fill-rule="evenodd" clip-rule="evenodd" d="M7.77678 6.00727C7.58481 5.54754 7.43925 5.53006 7.14844 5.51831C7.04944 5.51258 6.93914 5.50686 6.81679 5.50686C6.43842 5.50686 6.04288 5.61746 5.8042 5.86187C5.51339 6.15871 4.79177 6.85125 4.79177 8.27128C4.79177 9.69147 5.82741 11.0649 5.96709 11.2572C6.11265 11.449 7.98622 14.4057 10.8954 15.6107C13.1704 16.5536 13.8455 16.4662 14.3632 16.3557C15.1196 16.1928 16.068 15.6338 16.3067 14.9589C16.5452 14.2837 16.5452 13.7075 16.4753 13.5853C16.4056 13.4631 16.2134 13.3934 15.9226 13.2477C15.6318 13.1022 14.2178 12.4038 13.9502 12.3106C13.6883 12.2118 13.4382 12.2467 13.2405 12.5261C12.9611 12.9161 12.6878 13.3119 12.4666 13.5505C12.2921 13.7367 12.0069 13.7601 11.7683 13.6611C11.4483 13.5274 10.5523 13.2128 9.44678 12.2293C8.59136 11.467 8.00958 10.5184 7.84097 10.2332C7.67221 9.94221 7.82349 9.7733 7.9573 9.61629C8.10286 9.43577 8.24239 9.30784 8.38779 9.13892C8.53335 8.97016 8.61472 8.88292 8.70784 8.68492C8.80684 8.49295 8.73692 8.29495 8.66716 8.14939C8.59724 8.00352 8.01546 6.58333 7.77678 6.00727ZM10.5406 0.978516C5.08293 0.978516 0.643555 5.41913 0.643555 10.8784C0.643555 13.0434 1.34181 15.0514 2.52873 16.681L1.2951 20.3593L5.10041 19.1432C6.66554 20.1791 8.53324 20.7785 10.5465 20.7785C16.0042 20.7785 20.4436 16.3376 20.4436 10.8787C20.4436 5.41944 16.0042 0.978825 10.5465 0.978825H10.5408V0.978516H10.5406Z" fill="#5294EE" fill-opacity="0.6"/>
</svg>
